[
{
  "directory": "/home/j/Projects/C/parallel-processing-lab/lab6/build/pr1",
  "command": "/usr/bin/mpicc   -fopenmp -o CMakeFiles/pr1.dir/pr1.c.o -c /home/j/Projects/C/parallel-processing-lab/lab6/pr1/pr1.c",
  "file": "/home/j/Projects/C/parallel-processing-lab/lab6/pr1/pr1.c"
},
{
  "directory": "/home/j/Projects/C/parallel-processing-lab/lab6/build/pi",
  "command": "/usr/bin/mpicc   -fopenmp -o CMakeFiles/pi.dir/pi.c.o -c /home/j/Projects/C/parallel-processing-lab/lab6/pi/pi.c",
  "file": "/home/j/Projects/C/parallel-processing-lab/lab6/pi/pi.c"
}
]